%YAML 1.1
%TAG !u! tag:unity3d.com,2011:
--- !u!1 &2507811915614215575
GameObject:
  m_ObjectHideFlags: 0
  m_CorrespondingSourceObject: {fileID: 0}
  m_PrefabInstance: {fileID: 0}
  m_PrefabAsset: {fileID: 0}
  serializedVersion: 6
  m_Component:
  - component: {fileID: 2507811915613920077}
  - component: {fileID: 2507811915613170765}
  - component: {fileID: 2507811915612035031}
  m_Layer: 0
  m_Name: building_7
  m_TagString: Untagged
  m_Icon: {fileID: 0}
  m_NavMeshLayer: 0
  m_StaticEditorFlags: 0
  m_IsActive: 1
--- !u!4 &2507811915613920077
Transform:
  m_ObjectHideFlags: 0
  m_CorrespondingSourceObject: {fileID: 0}
  m_PrefabInstance: {fileID: 0}
  m_PrefabAsset: {fileID: 0}
  m_GameObject: {fileID: 2507811915614215575}
  m_LocalRotation: {x: 0, y: 0, z: 0, w: 1}
  m_LocalPosition: {x: 16, y: 0, z: -32.36}
  m_LocalScale: {x: 2.4137404, y: 4.0160155, z: 4.0160155}
  m_Children: []
  m_Father: {fileID: 0}
  m_RootOrder: 0
  m_LocalEulerAnglesHint: {x: 0, y: 0, z: 0}
--- !u!33 &2507811915613170765
MeshFilter:
  m_ObjectHideFlags: 0
  m_CorrespondingSourceObject: {fileID: 0}
  m_PrefabInstance: {fileID: 0}
  m_PrefabAsset: {fileID: 0}
  m_GameObject: {fileID: 2507811915614215575}
  m_Mesh: {fileID: 4300000, guid: 6d75e2d5936dd69428c33f6dc7f1f195, type: 3}
--- !u!23 &2507811915612035031
MeshRenderer:
  m_ObjectHideFlags: 0
  m_CorrespondingSourceObject: {fileID: 0}
  m_PrefabInstance: {fileID: 0}
  m_PrefabAsset: {fileID: 0}
  m_GameObject: {fileID: 2507811915614215575}
  m_Enabled: 1
  m_CastShadows: 1
  m_ReceiveShadows: 1
  m_DynamicOccludee: 1
  m_MotionVectors: 1
  m_LightProbeUsage: 1
  m_ReflectionProbeUsage: 1
  m_RayTracingMode: 2
  m_RayTraceProcedural: 0
  m_RenderingLayerMask: 1
  m_RendererPriority: 0
  m_Materials:
  - {fileID: 2100000, guid: 69bb725cfe9ae0446bfddd8e8cd284b8, type: 2}
  - {fileID: 2100000, guid: ecf0c8c920ea9b24dac7bc5e61487e27, type: 2}
  - {fileID: 2100000, guid: afb73dc68e4523f4d81dabd14bbd18e0, type: 2}
  - {fileID: 2100000, guid: 3b408168ff3217946a796b6d1e18f30e, type: 2}
  - {fileID: 2100000, guid: deae3b6931a3d604dbd7a0c00d570bf3, type: 2}
  - {fileID: 2100000, guid: 550d7603b14e9b749b0b3d786dc492e6, type: 2}
  - {fileID: 2100000, guid: ad194165a3b338446a4039cb63cce58e, type: 2}
  - {fileID: 2100000, guid: 3dd37bccb7c47de43bff59a728b0620f, type: 2}
  - {fileID: 2100000, guid: 997142df1347bfe44916e07945d21923, type: 2}
  - {fileID: 2100000, guid: 2113ddfbea964af478849c499ddd366a, type: 2}
  m_StaticBatchInfo:
    firstSubMesh: 0
    subMeshCount: 0
  m_StaticBatchRoot: {fileID: 0}
  m_ProbeAnchor: {fileID: 0}
  m_LightProbeVolumeOverride: {fileID: 0}
  m_ScaleInLightmap: 1
  m_ReceiveGI: 1
  m_PreserveUVs: 0
  m_IgnoreNormalsForChartDetection: 0
  m_ImportantGI: 0
  m_StitchLightmapSeams: 1
  m_SelectedEditorRenderState: 3
  m_MinimumChartSize: 4
  m_AutoUVMaxDistance: 0.5
  m_AutoUVMaxAngle: 89
  m_LightmapParameters: {fileID: 0}
  m_SortingLayerID: 0
  m_SortingLayer: 0
  m_SortingOrder: 0
  m_AdditionalVertexStreams: {fileID: 0}
